Exploratory Analysis
…
ACETransfers <- read_csv("Acetransfersummary.csv") %>% 
  filter(Year <= 2019 & Year >= 2010)

Rows: 12593 Columns: 7
── Column specification ────────────────────────────────────────────────────────
Delimiter: ","
chr (5): From, To, Stock, Transfer Initiated, Transfer Completed
dbl (2): Year, Live Pounds

ℹ Use `spec()` to retrieve the full column specification for this data.
ℹ Specify the column types or set `show_col_types = FALSE` to quiet this message.

ACETransfers 

# A tibble: 10,811 × 7
    Year From                     To    `Live Pounds` Stock `Transfer Initiated`
   <dbl> <chr>                    <chr>         <dbl> <chr> <chr>               
 1  2019 NEFS 2                   NEFS…          2100 GOM … 22-May-20           
 2  2019 Sustainable Harvest Sec… Sust…          2800 Plai… 22-May-20           
 3  2019 Sustainable Harvest Sec… Sust…         23800 Whit… 22-May-20           
 4  2019 Sustainable Harvest Sec… Sust…          9200 Plai… 22-May-20           
 5  2019 Sustainable Harvest Sec… Sust…          2300 Witc… 22-May-20           
 6  2019 Sustainable Harvest Sec… Sust…           400 GOM … 22-May-20           
 7  2019 Sustainable Harvest Sec… Sust…         12700 Whit… 16-May-20           
 8  2019 Sustainable Harvest Sec… Sust…         23000 Whit… 16-May-20           
 9  2019 Sustainable Harvest Sec… Sust…          1000 GB W… 16-May-20           
10  2019 Sustainable Harvest Sec… Sust…          6500 Witc… 16-May-20           
# ℹ 10,801 more rows
# ℹ 1 more variable: `Transfer Completed` <chr>
…
Transfers_with_managers

# A tibble: 10,811 × 10
    Year From          From_name To    To_name Manager_match `Live Pounds` Stock
   <dbl> <chr>         <chr>     <chr> <chr>   <fct>                 <dbl> <chr>
 1  2019 NEFS 2        <NA>      NEFS… <NA>    0                      2100 GOM …
 2  2019 Sustainable … Hank Sou… Sust… Hank S… 1                      2800 Plai…
 3  2019 Sustainable … Hank Sou… Sust… Hank S… 1                     23800 Whit…
 4  2019 Sustainable … Hank Sou… Sust… Hank S… 1                      9200 Plai…
 5  2019 Sustainable … Hank Sou… Sust… Hank S… 1                      2300 Witc…
 6  2019 Sustainable … Hank Sou… Sust… Hank S… 1                       400 GOM …
 7  2019 Sustainable … Hank Sou… Sust… Hank S… 1                     12700 Whit…
 8  2019 Sustainable … Hank Sou… Sust… Hank S… 1                     23000 Whit…
 9  2019 Sustainable … Hank Sou… Sust… Hank S… 1                      1000 GB W…
10  2019 Sustainable … Hank Sou… Sust… Hank S… 1                      6500 Witc…
# ℹ 10,801 more rows
# ℹ 2 more variables: `Transfer Initiated` <chr>, `Transfer Completed` <chr>
…
Sector Mangers meet Climate Change

Here is where I should explore how the climate change factors are influencing the amount of “Live Pounds” that are being traded between the sector managers.

#If ecodata is sorted as yearly
Transfers_summarized <- Transfers_with_managers %>% 
  group_by(Year, Stock, Manager_match) %>% 
  summarize(Live.Pounds.Traded = sum(`Live Pounds`))

`summarise()` has grouped output by 'Year', 'Stock'. You can override using the
`.groups` argument.

Transfers_summarized

# A tibble: 304 × 4
# Groups:   Year, Stock [167]
    Year Stock                      Manager_match Live.Pounds.Traded
   <dbl> <chr>                      <fct>                      <dbl>
 1  2010 CC/GOM Yellowtail Flounder 0                         391706
 2  2010 GB Cod East                0                         200302
 3  2010 GB Cod West                0                        2352423
 4  2010 GB Haddock East            0                         947992
 5  2010 GB Haddock West            0                        1793167
 6  2010 GB Winter Flounder         0                         248287
 7  2010 GB Yellowtail Flounder     0                         331509
 8  2010 GOM Cod                    0                        2148941
 9  2010 GOM Haddock                0                         510807
10  2010 GOM Winter Flounder        0                          78819
# ℹ 294 more rows

Possible ecodata datasets

temp1

# A tibble: 80 × 10
    Time quarter EPU   `bottom temp anomaly in situ` `sst anomaly in situ`
   <dbl> <fct>   <chr>                         <dbl>                 <dbl>
 1  2010 Q1      GB                           0.0670                 0.435
 2  2010 Q2      GB                           0.0670                 0.435
 3  2010 Q3      GB                           0.0670                 0.435
 4  2010 Q4      GB                           0.0670                 0.435
 5  2010 Q1      GOM                          0.738                  0.854
 6  2010 Q2      GOM                          0.738                  0.854
 7  2010 Q3      GOM                          0.738                  0.854
 8  2010 Q4      GOM                          0.738                  0.854
 9  2011 Q1      GB                           0.633                  0.604
10  2011 Q2      GB                           0.633                  0.604
# ℹ 70 more rows
# ℹ 5 more variables: `duration-SurfaceDetrended` <dbl>,
#   `duration-BottomDetrended` <dbl>, Gale_Wind <dbl>, Wave_Height <dbl>,
#   Algae <dbl>
…
Climate.Stock.Transfers <- Transfers_summarized %>% 
  left_join(temp2, by = join_by(Year == Time))

Climate.Stock.Transfers

# A tibble: 304 × 11
# Groups:   Year, Stock [167]
    Year Stock Manager_match Live.Pounds.Traded bottom.temp.max surface.temp.max
   <dbl> <chr> <fct>                      <dbl>           <dbl>            <dbl>
 1  2010 CC/G… 0                         391706           0.738            0.854
 2  2010 GB C… 0                         200302           0.738            0.854
 3  2010 GB C… 0                        2352423           0.738            0.854
 4  2010 GB H… 0                         947992           0.738            0.854
 5  2010 GB H… 0                        1793167           0.738            0.854
 6  2010 GB W… 0                         248287           0.738            0.854
 7  2010 GB Y… 0                         331509           0.738            0.854
 8  2010 GOM … 0                        2148941           0.738            0.854
 9  2010 GOM … 0                         510807           0.738            0.854
10  2010 GOM … 0                          78819           0.738            0.854
# ℹ 294 more rows
# ℹ 5 more variables: bottom.duration <dbl>, surface.duration <dbl>,
#   Gale.Wind <dbl>, Wave_Height <dbl>, Algae <dbl>
…
ACE.year

# A tibble: 170 × 5
   fishing_year Stock                 ACE.Live.Pounds ACE.t.metric.tons stock_id
          <dbl> <chr>                           <dbl>             <dbl> <chr>   
 1         2010 CC/GOM Yellowtail Fl…        1607170.             0.729 YELCCGM 
 2         2011 CC/GOM Yellowtail Fl…        2012820.             0.913 YELCCGM 
 3         2012 CC/GOM Yellowtail Fl…        2250920.             1.02  YELCCGM 
 4         2013 CC/GOM Yellowtail Fl…        1027354.             0.466 YELCCGM 
 5         2014 CC/GOM Yellowtail Fl…        1020740.             0.463 YELCCGM 
 6         2015 CC/GOM Yellowtail Fl…         963420.             0.437 YELCCGM 
 7         2016 CC/GOM Yellowtail Fl…         720912.             0.327 YELCCGM 
 8         2017 CC/GOM Yellowtail Fl…         718707.             0.326 YELCCGM 
 9         2018 CC/GOM Yellowtail Fl…         839961.             0.381 YELCCGM 
10         2019 CC/GOM Yellowtail Fl…         831143.             0.377 YELCCGM 
# ℹ 160 more rows

#Combine the ACE data with the sector trades data

Climate.Stock.Transfers <- ACE.year %>% 
  select(fishing_year, Stock, ACE.Live.Pounds) %>% 
  #Using a left_join instead of the right_join makes the order easier to see
  left_join(Climate.Stock.Transfers, by = join_by(fishing_year == Year, Stock == Stock))

Climate.Stock.Transfers

# A tibble: 307 × 12
   fishing_year Stock           ACE.Live.Pounds Manager_match Live.Pounds.Traded
          <dbl> <chr>                     <dbl> <fct>                      <dbl>
 1         2010 CC/GOM Yellowt…        1607170. 0                        391706 
 2         2011 CC/GOM Yellowt…        2012820. 0                        638195.
 3         2011 CC/GOM Yellowt…        2012820. 1                         28130 
 4         2012 CC/GOM Yellowt…        2250920. 0                        755434.
 5         2012 CC/GOM Yellowt…        2250920. 1                         37824 
 6         2013 CC/GOM Yellowt…        1027354. 0                        375699 
 7         2013 CC/GOM Yellowt…        1027354. 1                         21969 
 8         2014 CC/GOM Yellowt…        1020740. 0                        206318.
 9         2015 CC/GOM Yellowt…         963420. 0                        432026 
10         2015 CC/GOM Yellowt…         963420. 1                         40321 
# ℹ 297 more rows
# ℹ 7 more variables: bottom.temp.max <dbl>, surface.temp.max <dbl>,
#   bottom.duration <dbl>, surface.duration <dbl>, Gale.Wind <dbl>,
#   Wave_Height <dbl>, Algae <dbl>
…
